^C:\USERS\KREBS\DOCUMENTS\PROGRAMMING\PYTHON\CONSOLEAPPLICATION1\CONSOLEAPPLICATION1\X64\DEBUG\IMAGE.OBJ|C:\USERS\KREBS\DOCUMENTS\PROGRAMMING\PYTHON\CONSOLEAPPLICATION1\CONSOLEAPPLICATION1\X64\DEBUG\IPTOOL.OBJ|C:\USERS\KREBS\DOCUMENTS\PROGRAMMING\PYTHON\CONSOLEAPPLICATION1\CONSOLEAPPLICATION1\X64\DEBUG\STDAFX.OBJ|C:\USERS\KREBS\DOCUMENTS\PROGRAMMING\PYTHON\CONSOLEAPPLICATION1\CONSOLEAPPLICATION1\X64\DEBUG\UTILITY.OBJ
C:\WINDOWS\GLOBALIZATION\SORTING\SORTDEFAULT.NLS
C:\USERS\KREBS\DOCUMENTS\PROGRAMMING\OPENCV\BUILD\X64\VC14\LIB\OPENCV_WORLD310.LIB
C:\PROGRAM FILES (X86)\WINDOWS KITS\8.1\LIB\WINV6.3\UM\X64\KERNEL32.LIB
C:\PROGRAM FILES (X86)\WINDOWS KITS\8.1\LIB\WINV6.3\UM\X64\USER32.LIB
C:\PROGRAM FILES (X86)\WINDOWS KITS\8.1\LIB\WINV6.3\UM\X64\GDI32.LIB
C:\PROGRAM FILES (X86)\WINDOWS KITS\8.1\LIB\WINV6.3\UM\X64\WINSPOOL.LIB
C:\PROGRAM FILES (X86)\WINDOWS KITS\8.1\LIB\WINV6.3\UM\X64\COMDLG32.LIB
C:\PROGRAM FILES (X86)\WINDOWS KITS\8.1\LIB\WINV6.3\UM\X64\ADVAPI32.LIB
C:\PROGRAM FILES (X86)\WINDOWS KITS\8.1\LIB\WINV6.3\UM\X64\SHELL32.LIB
C:\PROGRAM FILES (X86)\WINDOWS KITS\8.1\LIB\WINV6.3\UM\X64\OLE32.LIB
C:\PROGRAM FILES (X86)\WINDOWS KITS\8.1\LIB\WINV6.3\UM\X64\OLEAUT32.LIB
C:\PROGRAM FILES (X86)\WINDOWS KITS\8.1\LIB\WINV6.3\UM\X64\UUID.LIB
C:\PROGRAM FILES (X86)\WINDOWS KITS\8.1\LIB\WINV6.3\UM\X64\ODBC32.LIB
C:\PROGRAM FILES (X86)\WINDOWS KITS\8.1\LIB\WINV6.3\UM\X64\ODBCCP32.LIB
C:\USERS\KREBS\DOCUMENTS\PROGRAMMING\PYTHON\CONSOLEAPPLICATION1\CONSOLEAPPLICATION1\X64\DEBUG\IMAGE.OBJ
C:\USERS\KREBS\DOCUMENTS\PROGRAMMING\PYTHON\CONSOLEAPPLICATION1\CONSOLEAPPLICATION1\X64\DEBUG\IPTOOL.OBJ
C:\USERS\KREBS\DOCUMENTS\PROGRAMMING\PYTHON\CONSOLEAPPLICATION1\CONSOLEAPPLICATION1\X64\DEBUG\STDAFX.OBJ
C:\USERS\KREBS\DOCUMENTS\PROGRAMMING\PYTHON\CONSOLEAPPLICATION1\CONSOLEAPPLICATION1\X64\DEBUG\UTILITY.OBJ
C:\PROGRAM FILES (X86)\MICROSOFT VISUAL STUDIO 14.0\VC\LIB\AMD64\MSVCPRTD.LIB
C:\PROGRAM FILES (X86)\MICROSOFT VISUAL STUDIO 14.0\VC\LIB\AMD64\MSVCRTD.LIB
C:\PROGRAM FILES (X86)\MICROSOFT VISUAL STUDIO 14.0\VC\LIB\AMD64\OLDNAMES.LIB
C:\PROGRAM FILES (X86)\MICROSOFT VISUAL STUDIO 14.0\VC\LIB\AMD64\VCRUNTIMED.LIB
C:\PROGRAM FILES (X86)\WINDOWS KITS\10\LIB\10.0.10150.0\UCRT\X64\UCRTD.LIB
C:\PROGRAM FILES (X86)\WINDOWS KITS\8.1\BIN\X86\RC.EXE
C:\PROGRAM FILES (X86)\MICROSOFT VISUAL STUDIO 14.0\VC\BIN\CVTRES.EXE
C:\WINDOWS\SYSTEM32\TZRES.DLL
